%YAML 1.1
%TAG !u! tag:unity3d.com,2011:
--- !u!1 &2591274192070288977
GameObject:
  m_ObjectHideFlags: 0
  m_CorrespondingSourceObject: {fileID: 0}
  m_PrefabInstance: {fileID: 0}
  m_PrefabAsset: {fileID: 0}
  serializedVersion: 6
  m_Component:
  - component: {fileID: 2591274192070288978}
  - component: {fileID: 2591274192070288979}
  m_Layer: 0
  m_Name: ObstacleManager
  m_TagString: Untagged
  m_Icon: {fileID: 0}
  m_NavMeshLayer: 0
  m_StaticEditorFlags: 0
  m_IsActive: 1
--- !u!4 &2591274192070288978
Transform:
  m_ObjectHideFlags: 0
  m_CorrespondingSourceObject: {fileID: 0}
  m_PrefabInstance: {fileID: 0}
  m_PrefabAsset: {fileID: 0}
  m_GameObject: {fileID: 2591274192070288977}
  m_LocalRotation: {x: -0, y: -0, z: -0, w: 1}
  m_LocalPosition: {x: 0, y: 0, z: 0}
  m_LocalScale: {x: 1, y: 1, z: 1}
  m_Children: []
  m_Father: {fileID: 0}
  m_RootOrder: 0
  m_LocalEulerAnglesHint: {x: 0, y: 0, z: 0}
--- !u!114 &2591274192070288979
MonoBehaviour:
  m_ObjectHideFlags: 0
  m_CorrespondingSourceObject: {fileID: 0}
  m_PrefabInstance: {fileID: 0}
  m_PrefabAsset: {fileID: 0}
  m_GameObject: {fileID: 2591274192070288977}
  m_Enabled: 1
  m_EditorHideFlags: 0
  m_Script: {fileID: 11500000, guid: 2317b114fa98a9e4da1b3624e9da4bd2, type: 3}
  m_Name: 
  m_EditorClassIdentifier: 
  m_DoNotDestroyGameObjectOnLoad: 0
  m_ObstaclePrefab: {fileID: 6575095179083575383, guid: 81c492af08fa3e1458f36921b2ffc0e5,
    type: 3}
  m_SpawnCooldown: {x: 1.8, y: 2.5}
  m_DistanceSpawnFromPlayer: 75
