%YAML 1.1
%TAG !u! tag:unity3d.com,2011:
--- !u!1 &6575095179083575383
GameObject:
  m_ObjectHideFlags: 0
  m_CorrespondingSourceObject: {fileID: 0}
  m_PrefabInstance: {fileID: 0}
  m_PrefabAsset: {fileID: 0}
  serializedVersion: 6
  m_Component:
  - component: {fileID: 6575095179083575377}
  - component: {fileID: 6575095179083575382}
  m_Layer: 9
  m_Name: ObstacleSelector
  m_TagString: Untagged
  m_Icon: {fileID: 0}
  m_NavMeshLayer: 0
  m_StaticEditorFlags: 0
  m_IsActive: 1
--- !u!4 &6575095179083575377
Transform:
  m_ObjectHideFlags: 0
  m_CorrespondingSourceObject: {fileID: 0}
  m_PrefabInstance: {fileID: 0}
  m_PrefabAsset: {fileID: 0}
  m_GameObject: {fileID: 6575095179083575383}
  m_LocalRotation: {x: 0, y: 0, z: 0, w: 1}
  m_LocalPosition: {x: 0, y: 0, z: 0}
  m_LocalScale: {x: 1, y: 1, z: 1}
  m_Children: []
  m_Father: {fileID: 0}
  m_RootOrder: 0
  m_LocalEulerAnglesHint: {x: 0, y: 0, z: 0}
--- !u!114 &6575095179083575382
MonoBehaviour:
  m_ObjectHideFlags: 0
  m_CorrespondingSourceObject: {fileID: 0}
  m_PrefabInstance: {fileID: 0}
  m_PrefabAsset: {fileID: 0}
  m_GameObject: {fileID: 6575095179083575383}
  m_Enabled: 1
  m_EditorHideFlags: 0
  m_Script: {fileID: 11500000, guid: 2e93c566d0ac0b540bf85cad380ce346, type: 3}
  m_Name: 
  m_EditorClassIdentifier: 
  m_ObstaclePrefab:
  - {fileID: 5022345207089141432, guid: 7533028dd5cf07249be345f2d29748f6, type: 3}
  - {fileID: 463741465103394814, guid: 85b714079159dea468ee175ec3a12e2e, type: 3}
  - {fileID: 2038000908395716210, guid: a6c7be69d138f4c498ef380fcc63154b, type: 3}
